\relax 
\providecommand\hyper@newdestlabel[2]{}
\providecommand\HyperFirstAtBeginDocument{\AtBeginDocument}
\HyperFirstAtBeginDocument{\ifx\hyper@anchor\@undefined
\global\let\oldcontentsline\contentsline
\gdef\contentsline#1#2#3#4{\oldcontentsline{#1}{#2}{#3}}
\global\let\oldnewlabel\newlabel
\gdef\newlabel#1#2{\newlabelxx{#1}#2}
\gdef\newlabelxx#1#2#3#4#5#6{\oldnewlabel{#1}{{#2}{#3}}}
\AtEndDocument{\ifx\hyper@anchor\@undefined
\let\contentsline\oldcontentsline
\let\newlabel\oldnewlabel
\fi}
\fi}
\global\let\hyper@last\relax 
\gdef\HyperFirstAtBeginDocument#1{#1}
\providecommand\HyField@AuxAddToFields[1]{}
\providecommand\HyField@AuxAddToCoFields[2]{}
\newlabel{FirstPage}{{}{1}{}{section*.1}{}}
\@writefile{toc}{\contentsline {title}{Non-Fermi Liquids From Concentric Fermi Surfaces}{1}{section*.2}}
\@writefile{toc}{\contentsline {abstract}{Abstract}{1}{section*.1}}
\gdef \tocmax@section{21.13316pt}
\gdef \tocmax@subsection{16.5721pt}
\gdef \tocmax@subsubsection{5.0pt}
\gdef \tocmax@paragraph{5.0pt}
\gdef \tocmax@appendix{5.0pt}
\gdef \tocmax@pagenum{11.74988pt}
\citation{holstein,reizer,leenag,HALPERIN,polchinski,ALTSHULER,YBKim,nayak,lawler1,lee09,metlsach1,metlsach,chubukov1,Chubukov,mross,Jiang,Shouvik1,Lee-Dalid,ips1,shouvik2,sur16,ips2,ips2,ips4}
\citation{metlsach1,ogankivfr,metzner,delanna,kee,lawler1,rech,wolfle,maslov,quintanilla,yamase1,yamase2,halboth,jakub,zacharias,kim,huh}
\citation{MOTRUNICH,LEE_U1,PALEE,MotrunichFisher}
\citation{subir6,xu10,berg14}
\citation{Lee-Dalid,ips1}
\citation{nayak,mross,potter15}
\@writefile{toc}{\tocdepth@munge}
\@writefile{toc}{\contentsline {section}{\numberline {}Contents}{2}{section*.3}}
\@writefile{toc}{\tocdepth@restore}
\@writefile{toc}{\contentsline {section}{\numberline {I}Introduction }{2}{section*.4}}
\citation{subir6,berg14}
\citation{berg12,berg14}
\citation{xu10,potter15}
\citation{lee09,Lee-Dalid}
\citation{berg14,potter15}
\@writefile{lof}{\contentsline {figure}{\numberline {1}{\ignorespaces Annular Fermi sea with two concentric Fermi surfaces, obtained in the low-doping regime.\relax }}{3}{figure.caption.6}}
\providecommand*\caption@xref[2]{\@setref\relax\@undefined{#1}}
\newlabel{fs-annulur}{{1}{3}{Annular Fermi sea with two concentric Fermi surfaces, obtained in the low-doping regime.\relax }{figure.caption.6}{}}
\@writefile{toc}{\contentsline {section}{\numberline {II}Model in the low-doping regime}{3}{section*.5}}
\newlabel{model}{{II}{3}{}{section*.5}{}}
\citation{senshank,Lee-Dalid,shouvik2,ips1,sur16}
\citation{Lee-Dalid,ips1}
\newlabel{act0}{{2.1}{4}{}{equation.2.1}{}}
\newlabel{act1}{{2.2}{4}{}{equation.2.2}{}}
\citation{Lee-Dalid,ips1}
\newlabel{babos}{{2.5}{5}{}{equation.2.5}{}}
\newlabel{one-loop-ferm}{{2.6}{5}{}{equation.2.6}{}}
\newlabel{act7}{{2.8}{5}{}{equation.2.8}{}}
\citation{potter15}
\citation{son}
\citation{ips-sc}
\citation{max}
\newlabel{eq:be}{{2.11}{6}{}{equation.2.11}{}}
\newlabel{efp}{{2.12}{6}{}{equation.2.12}{}}
\@writefile{toc}{\contentsline {subsection}{\numberline {A}Superconducting Instability}{6}{section*.7}}
\newlabel{cooper1}{{II\tmspace  +\thinmuskip {.1667em}A}{6}{}{section*.7}{}}
\newlabel{j1}{{2.17}{7}{}{equation.2.17}{}}
\@writefile{toc}{\contentsline {subsection}{\numberline {B}Particle-Hole Susceptibility To SDW Order}{8}{section*.8}}
\newlabel{sdw}{{II\tmspace  +\thinmuskip {.1667em}B}{8}{}{section*.8}{}}
\@writefile{toc}{\contentsline {section}{\numberline {III}Model in the high-doping regime}{9}{section*.9}}
\newlabel{modelh}{{III}{9}{}{section*.9}{}}
\newlabel{act2}{{3.1}{9}{}{equation.3.1}{}}
\@writefile{lof}{\contentsline {figure}{\numberline {2}{\ignorespaces  The one-loop diagrams for (a) the boson self-energy, (b) the fermion self-energy, and (c) the vertex correction (c). Solid lines represent the bare fermion propagator for a particular set of $\delimiter "4266308 s,j,l \delimiter "5267309 $, whereas wiggly lines in (b) and (c) represent the dressed boson propagator which includes the one-loop bosonic self-energy correction computed from (a).\relax }}{11}{figure.caption.13}}
\newlabel{oneloopdiag}{{2}{11}{The one-loop diagrams for (a) the boson self-energy, (b) the fermion self-energy, and (c) the vertex correction (c). Solid lines represent the bare fermion propagator for a particular set of $\lbrace s,j,l \rbrace $, whereas wiggly lines in (b) and (c) represent the dressed boson propagator which includes the one-loop bosonic self-energy correction computed from (a).\relax }{figure.caption.13}{}}
\@writefile{toc}{\contentsline {section}{\numberline {IV}Conclusion}{11}{section*.10}}
\newlabel{conclude}{{IV}{11}{}{section*.10}{}}
\@writefile{toc}{\contentsline {section}{\numberline {}Acknowledgments}{11}{section*.11}}
\@writefile{toc}{\appendix }
\@writefile{toc}{\contentsline {section}{\numberline {A}Computation Of The Self-Energy Diagrams At One-loop}{12}{section*.12}}
\newlabel{oneloop}{{A}{12}{}{section*.12}{}}
\@writefile{toc}{\contentsline {subsection}{\numberline {1}One-loop Boson Self-Energy}{12}{section*.14}}
\newlabel{bos}{{A\tmspace  +\thinmuskip {.1667em}1}{12}{}{section*.14}{}}
\newlabel{bosloop0}{{A1}{12}{}{equation.A.1}{}}
\newlabel{a8}{{A3}{12}{}{equation.A.3}{}}
\newlabel{feynm}{{A4}{12}{}{equation.A.4}{}}
\newlabel{api}{{A6}{12}{}{equation.A.6}{}}
\citation{metlsach1}
\@writefile{toc}{\contentsline {subsection}{\numberline {2}One-loop Fermion Self-Energy}{13}{section*.15}}
\newlabel{ferm}{{A\tmspace  +\thinmuskip {.1667em}2}{13}{}{section*.15}{}}
\@writefile{toc}{\contentsline {subsection}{\numberline {3}Fermion self-energy}{13}{section*.16}}
\newlabel{app:oneloopferm}{{A\tmspace  +\thinmuskip {.1667em}3}{13}{}{section*.16}{}}
\newlabel{ferm11}{{A8}{13}{}{equation.A.8}{}}
\newlabel{intII}{{A10}{13}{}{equation.A.10}{}}
\newlabel{sigma33}{{A11}{13}{}{equation.A.11}{}}
\@writefile{toc}{\contentsline {subsection}{\numberline {4}Vertex renormalization}{13}{section*.17}}
\newlabel{oneloopvert}{{A\tmspace  +\thinmuskip {.1667em}4}{13}{}{section*.17}{}}
\newlabel{vertloop}{{A12}{13}{}{equation.A.12}{}}
\bibdata{notes-aniso-nflNotes,notes-aniso-nfl}
\bibcite{holstein}{{1}{1973}{{Holstein\ \emph  {et~al.}}}{{Holstein, Norton,\ and\ Pincus}}}
\bibcite{reizer}{{2}{1989}{{Reizer}}{{}}}
\bibcite{leenag}{{3}{1992}{{Lee\ and\ Nagaosa}}{{}}}
\bibcite{HALPERIN}{{4}{1993}{{Halperin\ \emph  {et~al.}}}{{Halperin, Lee,\ and\ Read}}}
\bibcite{polchinski}{{5}{1994}{{{Polchinski}}}{{}}}
\bibcite{ALTSHULER}{{6}{1994}{{Altshuler\ \emph  {et~al.}}}{{Altshuler, Ioffe,\ and\ Millis}}}
\@writefile{toc}{\contentsline {section}{\numberline {B}Some useful integrals}{14}{section*.18}}
\newlabel{integ}{{B}{14}{}{section*.18}{}}
\newlabel{useint}{{B1}{14}{}{equation.B.1}{}}
\newlabel{useint2}{{B2}{14}{}{equation.B.2}{}}
\newlabel{angint}{{B3}{14}{}{equation.B.3}{}}
\@writefile{toc}{\contentsline {section}{\numberline {}References}{14}{section*.19}}
\bibcite{YBKim}{{7}{2008}{{{Kim}\ \emph  {et~al.}}}{{{Kim}, {Lawler}, {Oreto}, {Sachdev}, {Fradkin},\ and\ {Kivelson}}}}
\bibcite{nayak}{{8}{1994}{{{Nayak}\ and\ {Wilczek}}}{{}}}
\bibcite{lawler1}{{9}{2006}{{{Lawler}\ \emph  {et~al.}}}{{{Lawler}, {Barci}, {Fern{\'a}ndez}, {Fradkin},\ and\ {Oxman}}}}
\bibcite{lee09}{{10}{2009}{{Lee}}{{}}}
\bibcite{metlsach1}{{11}{2010{}}{{Metlitski\ and\ Sachdev}}{{}}}
\bibcite{metlsach}{{12}{2010{}}{{Metlitski\ and\ Sachdev}}{{}}}
\bibcite{chubukov1}{{13}{2004}{{{Abanov}\ and\ {Chubukov}}}{{}}}
\bibcite{Chubukov}{{14}{2000}{{{Abanov}\ and\ {Chubukov}}}{{}}}
\bibcite{mross}{{15}{2010}{{Mross\ \emph  {et~al.}}}{{Mross, McGreevy, Liu,\ and\ Senthil}}}
\bibcite{Jiang}{{16}{2013}{{{Jiang}\ \emph  {et~al.}}}{{{Jiang}, {Block}, {Mishmash}, {Garrison}, {Sheng}, {Motrunich},\ and\ {Fisher}}}}
\bibcite{Shouvik1}{{17}{2014}{{Sur\ and\ Lee}}{{}}}
\bibcite{Lee-Dalid}{{18}{2013}{{Dalidovich\ and\ Lee}}{{}}}
\bibcite{ips1}{{19}{2015}{{Mandal\ and\ Lee}}{{}}}
\bibcite{shouvik2}{{20}{2015}{{Sur\ and\ Lee}}{{}}}
\bibcite{sur16}{{21}{2016}{{{Sur}\ and\ {Lee}}}{{}}}
\bibcite{ips2}{{22}{2013}{{Chung\ \emph  {et~al.}}}{{Chung, Mandal, Raghu,\ and\ Chakravarty}}}
\bibcite{ips4}{{23}{2016}{{{Eberlein}\ \emph  {et~al.}}}{{{Eberlein}, {Mandal},\ and\ {Sachdev}}}}
\bibcite{ogankivfr}{{24}{2001}{{Oganesyan\ \emph  {et~al.}}}{{Oganesyan, Kivelson,\ and\ Fradkin}}}
\bibcite{metzner}{{25}{2003}{{Metzner\ \emph  {et~al.}}}{{Metzner, Rohe,\ and\ Andergassen}}}
\bibcite{delanna}{{26}{2006}{{Dell'Anna\ and\ Metzner}}{{}}}
\bibcite{kee}{{27}{2003}{{Kee\ \emph  {et~al.}}}{{Kee, Kim,\ and\ Chung}}}
\bibcite{rech}{{28}{2006}{{Rech\ \emph  {et~al.}}}{{Rech, P\'epin,\ and\ Chubukov}}}
\bibcite{wolfle}{{29}{2007}{{{W{\"o}lfle}\ and\ {Rosch}}}{{}}}
\bibcite{maslov}{{30}{2010}{{Maslov\ and\ Chubukov}}{{}}}
\bibcite{quintanilla}{{31}{2006}{{{Quintanilla}\ and\ {Schofield}}}{{}}}
\bibcite{yamase1}{{32}{2000}{{{Yamase}\ and\ {Kohno}}}{{}}}
\bibcite{yamase2}{{33}{2005}{{Yamase\ \emph  {et~al.}}}{{Yamase, Oganesyan,\ and\ Metzner}}}
\bibcite{halboth}{{34}{2000}{{Halboth\ and\ Metzner}}{{}}}
\bibcite{jakub}{{35}{2008}{{Jakubczyk\ \emph  {et~al.}}}{{Jakubczyk, Strack, Katanin,\ and\ Metzner}}}
\bibcite{zacharias}{{36}{2009}{{Zacharias\ \emph  {et~al.}}}{{Zacharias, W\"olfle,\ and\ Garst}}}
\bibcite{kim}{{37}{2008}{{Kim\ \emph  {et~al.}}}{{Kim, Lawler, Oreto, Sachdev, Fradkin,\ and\ Kivelson}}}
\bibcite{huh}{{38}{2008}{{{Huh}\ and\ {Sachdev}}}{{}}}
\bibcite{MOTRUNICH}{{39}{2005}{{{Motrunich}}}{{}}}
\bibcite{LEE_U1}{{40}{2005}{{Lee\ and\ Lee}}{{}}}
\bibcite{PALEE}{{41}{2006}{{{Lee}\ \emph  {et~al.}}}{{{Lee}, {Nagaosa},\ and\ {Wen}}}}
\bibcite{MotrunichFisher}{{42}{2007}{{Motrunich\ and\ Fisher}}{{}}}
\bibcite{subir6}{{43}{2006}{{Yang\ and\ Sachdev}}{{}}}
\bibcite{xu10}{{44}{2010}{{Xu}}{{}}}
\bibcite{berg14}{{45}{2014}{{Ruhman\ and\ Berg}}{{}}}
\bibcite{potter15}{{46}{2015}{{Bahri\ and\ Potter}}{{}}}
\bibcite{berg12}{{47}{2012}{{Berg\ \emph  {et~al.}}}{{Berg, Rudner,\ and\ Kivelson}}}
\bibcite{senshank}{{48}{2009}{{Senthil\ and\ Shankar}}{{}}}
\bibcite{son}{{49}{1999}{{Son}}{{}}}
\bibcite{ips-sc}{{50}{}{{Mandal\ and\ Lee}}{{}}}
\bibcite{max}{{51}{2015}{{Metlitski\ \emph  {et~al.}}}{{Metlitski, Mross, Sachdev,\ and\ Senthil}}}
\bibstyle{apsrev4-1}
\citation{REVTEX41Control}
\citation{apsrev41Control}
\newlabel{LastBibItem}{{51}{16}{}{section*.19}{}}
\newlabel{LastPage}{{}{16}{}{}{}}
